NDVI analysis of hyperspectral data
…
2.6 Count pixels per plot (size 1m^2)

plot_values_comb %>%
  group_by(name) %>%
  count() %>%
  arrange(desc(n))

## # A tibble: 28 x 2
## # Groups:   name [28]
##    name                           n
##    <fct>                      <int>
##  1 Busturi                   162593
##  2 Altube                    134327
##  3 Silvest Nograro           116348
##  4 Pinast Arza                81070
##  5 Douglas Legutio            76759
##  6 Aguinaga Pinaster Radiata  67121
##  7 Laricio Defol Urkiola      65394
##  8 Pinas Santa Koloma         61612
##  9 Laricio Defol Olaeta       58974
## 10 Barazar                    41391
## # ... with 18 more rows
…
