Feature importance analysis
…
add feat imp plan

Rmd

3999cd9

pat-s

2019-06-30

add feature importance report

Preview the ordered feature importance results for datasets “HR” and “VI”.

# A tibble: 122 x 5
   feature importance wavelength numeric_id  rank
   <chr>        <dbl>      <dbl>      <dbl> <int>
 1 B69          1.57        724          69     1
 2 B70          1.28        729.         70     2
 3 B126         1.26        995.        126     3
 4 B115         1.11        942.        115     4
 5 B68          1.01        719.         68     5
 6 B7           0.953       430.          7     6
 7 B71          0.951       734.         71     7
 8 B67          0.874       714.         67     8
 9 B113         0.837       933         113     9
10 B124         0.773       985.        124    10
# … with 112 more rows

# A tibble: 89 x 3
   feature    importance  rank
   <chr>           <dbl> <int>
 1 Vogelmann2      1.79      1
 2 Vogelmann4      1.47      2
 3 Vogelmann       0.914     3
 4 NPCI            0.717     4
 5 Vogelmann3      0.707     5
 6 D2              0.657     6
 7 Datt3           0.637     7
 8 PWI             0.545     8
 9 SR7             0.526     9
10 SRPI            0.509    10
# … with 79 more rows
…
